{
  "Armbrüste": {},
  "Bögen": {},
  "Messer": {
    "Generationendolch": [
      "Der Generationendolch ist ein eher kurzer Dolch aus halb transparenem Kristall.",
      "Er hat einen rötlichen Schimmer und nimmt nur auf, was ihn stärkt."
    ]
  },
  "Schwerter": {},
  "Wurfwaffen": {},
  "Hämmer": {},
  "Verstärker": {},
  "Feuerwaffen": {}
}